{
    "page": 1,
    "total_results": 41,
    "total_pages": 3,
    "results": [
        {
            "vote_count": 1095,
            "id": 9277,
            "video": false,
            "vote_average": 8.1,
            "title": "The Sting",
            "popularity": 12.495,
            "poster_path": "/mQaM8fDQdFWwCTFp0TZG8fChlZ5.jpg",
            "original_language": "en",
            "original_title": "The Sting",
            "genre_ids": [
                35,
                80,
                18
            ],
            "backdrop_path": "/qdTTCAt35taHlFeeKZwBXLuJ5z7.jpg",
            "adult": false,
            "overview": "Set in the 1930s this intricate caper deals with an ambitious small-time crook and a veteran con man who seek revenge on a vicious crime lord who murdered one of their gang.",
            "release_date": "1973-12-25"
        },
        {
            "vote_count": 1,
            "id": 356786,
            "video": false,
            "vote_average": 7,
            "title": "The Sting",
            "popularity": 1.12,
            "poster_path": "/tMIRI68ZLxdUWHOPsfbGzoW3Xc6.jpg",
            "original_language": "cn",
            "original_title": "俠聖",
            "genre_ids": [
                35
            ],
            "backdrop_path": null,
            "adult": false,
            "overview": "Simon Tam, \"The Sting\", has learnt some Chinese traditional skill from his master. To avoid misfortunes he has not accepted any business for 5 years. Now Simon is being employed to protect an accountant Law, but Law dies mysteriously. Law's legacy, 300 million dollars, which attracts the attention of a smuggling syndicate, is missing. This leads to a 300 million dollar big chase which Simon is involved inside.",
            "release_date": "1992-01-01"
        },
        {
            "vote_count": 16,
            "id": 36912,
            "video": false,
            "vote_average": 4.5,
            "title": "The Sting II",
            "popularity": 2.159,
            "poster_path": "/x6EIJg1ZxaN8R99IePjrY8GdgCm.jpg",
            "original_language": "en",
            "original_title": "The Sting II",
            "genre_ids": [
                35,
                80
            ],
            "backdrop_path": "/cGOwGyXwzFqOa4MbhOwSP82RsXl.jpg",
            "adult": false,
            "overview": "Hooker and Gondorf pull a con on Macalinski, an especially nasty mob boss with the help of Veronica, a new grifter. They convince this new victim that Hooker is a somewhat dull boxer who is tired of taking dives for Gondorf. There is a ringer. Lonigan, their victim from the first movie, is setting them up to take the fall.",
            "release_date": "1983-02-18"
        },
        {
            "vote_count": 81,
            "id": 38529,
            "video": false,
            "vote_average": 5.4,
            "title": "Horse Fever: The Mandrake Sting",
            "popularity": 3.819,
            "poster_path": "/ki5qjWPb4UA1R5XKw7AML4h4Hzm.jpg",
            "original_language": "it",
            "original_title": "Febbre da cavallo - La mandrakata",
            "genre_ids": [
                35
            ],
            "backdrop_path": "/qP4Pqe5Wv7zl0UWKRTsjbtLeqLV.jpg",
            "adult": false,
            "overview": "Seguito de Febbre da cavallo!",
            "release_date": "2002-10-31"
        },
        {
            "vote_count": 1,
            "id": 228293,
            "video": false,
            "vote_average": 4.5,
            "title": "Don't Sting the Mosquito",
            "popularity": 1.162,
            "poster_path": "/bBnVmzReDzs4MnZvynGnCZaUAOk.jpg",
            "original_language": "it",
            "original_title": "Non stuzzicate la zanzara",
            "genre_ids": [],
            "backdrop_path": null,
            "adult": false,
            "overview": "Rita, a vivacious co-ed flees her boarding school with her music teacher, who is also engaged to her. She wants to take part in a singing contest but her father who is dead against it has her kidnapped. He finally gives in when his wife threatens to sing in the contest herself.",
            "release_date": "1967-03-24"
        },
        {
            "vote_count": 2,
            "id": 29055,
            "video": false,
            "vote_average": 4.5,
            "title": "Sting of the Black Scorpion",
            "popularity": 1.4,
            "poster_path": "/fa9PAQdbOyogQ4EiSxE8dfEs2hL.jpg",
            "original_language": "en",
            "original_title": "Sting of the Black Scorpion",
            "genre_ids": [
                28,
                878
            ],
            "backdrop_path": "/2AwdBwA8EY2efK0LXBiq1KZIsMb.jpg",
            "adult": false,
            "overview": "Cop by day, masked crusader by night, the fearless and sultry Black Scorpion must protect the City of Angels from a deadly trio of villains... the prosthetic machine gun Firearm, the time-controlling Clockwise, and vision-stealing Flashpoint.",
            "release_date": "2002-11-06"
        },
        {
            "vote_count": 2,
            "id": 37874,
            "video": false,
            "vote_average": 7.3,
            "title": "Sting: The Brand New Day Tour: Live From The Universal Amphitheatre",
            "popularity": 1.159,
            "poster_path": "/swUZw3N6zjCWqvQgBPPiCAT9F6O.jpg",
            "original_language": "en",
            "original_title": "Sting: The Brand New Day Tour: Live From The Universal Amphitheatre",
            "genre_ids": [
                10402
            ],
            "backdrop_path": "/x2L4vLYBVEx75jYLm2mjB2XJl3w.jpg",
            "adult": false,
            "overview": "Concert video from Sting's Brand New Day Tour. 1. A Thousand Years 2. If You Love Somebody (Set Them Free) 3. After the Rain Has Fallen 4. We'll Be Together 5. Perfect Love... Gone Wrong 6. Seven Days 7. Fill Her Up 8. Every Little Thing She Does is Magic 9. Ghost Story 10. Moon Over Bourbon Street 11. Englishman in New York 12. Brand New Day 13. Tomorrow We'll See 14. Desert Rose 15. Every Breath You Take 16. Lithium Sunset 17. Message in a Bottle 18. Fragile",
            "release_date": "1999-09-08"
        },
        {
            "vote_count": 0,
            "id": 261195,
            "video": false,
            "vote_average": 0,
            "title": "Sting of the Scorpion",
            "popularity": 0.6,
            "poster_path": "/aZsNkaJ1mnkxWqYxKGsxRPjtrO6.jpg",
            "original_language": "cn",
            "original_title": "蠍子",
            "genre_ids": [],
            "backdrop_path": null,
            "adult": false,
            "overview": "Heroic Bloodshed movie from 1992",
            "release_date": "1992-01-01"
        },
        {
            "vote_count": 2,
            "id": 253755,
            "video": false,
            "vote_average": 3.8,
            "title": "The Scorpion's Sting",
            "popularity": 0.6,
            "poster_path": null,
            "original_language": "en",
            "original_title": "The Scorpion's Sting",
            "genre_ids": [
                27
            ],
            "backdrop_path": null,
            "adult": false,
            "overview": "This is a movie about a woman finding herself with some supernatural complications.",
            "release_date": "2013-08-28"
        },
        {
            "vote_count": 0,
            "id": 420043,
            "video": false,
            "vote_average": 0,
            "title": "Sting of the Red Spider",
            "popularity": 0.6,
            "poster_path": "/5wZtFIOIW8je46ddNssb1cFQUCr.jpg",
            "original_language": "id",
            "original_title": "Sengatan Laba-laba Merah",
            "genre_ids": [
                27
            ],
            "backdrop_path": null,
            "adult": false,
            "overview": "When Rengganis’ love for a fellow student at her martial arts school is spurned, she steals his magical power and turns into a Siluman Laba-Laba (Spider Demon). She then attacks and murders innocent people until her teacher sends his prized pupil Senjoyo after her armed with magic.",
            "release_date": "1989-01-01"
        },
        {
            "vote_count": 0,
            "id": 32472,
            "video": false,
            "vote_average": 0,
            "title": "W.A.S.P: The Sting",
            "popularity": 0.6,
            "poster_path": "/7X5u9JJ4L3gh0tt2kwkyTT0FXCU.jpg",
            "original_language": "en",
            "original_title": "W.A.S.P: The Sting",
            "genre_ids": [
                10402
            ],
            "backdrop_path": "/oU4Nv2SZpQn3MFoWVXyV8V7LGIn.jpg",
            "adult": false,
            "overview": "The Sting is a live album and DVD by the band W.A.S.P. Originally released as a DVD/CD set, it is also available as a CD on its own.  The concert was originally recorded and shown as a live webcast, which happened during the bands Helldorado World Tour. The DVD of the show (and the webcast) is the first live footage of the band to feature Blackies signature microphone stand, dubbed 'Elvis' by band and fans alike. This album according to band members is known as \"The Sting\".  It is alleged that Blackie is unhappy with the way the DVD and CD were produced, feeling that the sound is of an inferior quality",
            "release_date": "2002-04-30"
        },
        {
            "vote_count": 0,
            "id": 545776,
            "video": false,
            "vote_average": 0,
            "title": "The Sting of Stings",
            "popularity": 0.6,
            "poster_path": "/f8PJZc3gjqGjzCbdXUwg5S4tHDe.jpg",
            "original_language": "en",
            "original_title": "The Sting of Stings",
            "genre_ids": [
                35
            ],
            "backdrop_path": null,
            "adult": false,
            "overview": "Charley and Edna are feeling very pleased with themselves and their new car. They decide to share their good fortune and offer to take six underprivileged children out for a fun day at the carnival. Unfortunately, the children come from Juvenile Hall, and each one is more trouble than the last.",
            "release_date": "1927-09-03"
        },
        {
            "vote_count": 2,
            "id": 363188,
            "video": false,
            "vote_average": 7.5,
            "title": "Sting: Into the Light",
            "popularity": 0.6,
            "poster_path": "/e4gfkYg76n6iluPfkYuSlN3nOFk.jpg",
            "original_language": "en",
            "original_title": "Sting: Into the Light",
            "genre_ids": [
                99
            ],
            "backdrop_path": "/vOvf6WIiRrLQ5PP1hsUTTXsTp1n.jpg",
            "adult": false,
            "overview": "Get a behind-the-scenes look at the man behind the black and white face paint with Sting: Into the Light. Go into the mind of \"The Vigilante\" himself as he reflects on his historic career in sports entertainment and prepares to compete in a WWE ring for the first time ever on The Grandest Stage of Them All at WrestleMania. Hear from his greatest allies and rivals, relive his greatest matches as \"The Franchise of WCW\" and see \"The Man Called Sting\" finally emerge from the shadows and into the light.",
            "release_date": "2015-10-13"
        },
        {
            "vote_count": 0,
            "id": 74265,
            "video": false,
            "vote_average": 0,
            "title": "The Big Sting",
            "popularity": 0.6,
            "poster_path": "/y55CBg90A8kWKbFjCWdr0o5EUl6.jpg",
            "original_language": "en",
            "original_title": "The Big Sting",
            "genre_ids": [
                28
            ],
            "backdrop_path": null,
            "adult": false,
            "overview": "If the Three Stooges had been Chinese, with one a woman, this could very well have been one of their movies. Veteran director Lu Chun-ku leads handsome Liu Yung, pretty Liang Yun-hsin, and “Thundering Mantis,” Liang Chia-jen on a madcap mixup filled with cons, double crosses, and triple plots. Add “Dirty Ho” himself, Wang Yu, to the proceedings, and you’ve got a winner for any fans of action or comedy.",
            "release_date": "1984-01-01"
        },
        {
            "vote_count": 5,
            "id": 261038,
            "video": false,
            "vote_average": 7.8,
            "title": "The Newburgh Sting",
            "popularity": 0.6,
            "poster_path": "/g1OAYo8MVz08NquqdLYDJM0qP3C.jpg",
            "original_language": "en",
            "original_title": "The Newburgh Sting",
            "genre_ids": [
                99
            ],
            "backdrop_path": null,
            "adult": false,
            "overview": "Just 60 miles north of New York City sits the poverty-stricken town of Newburgh, where, in 2009, four men were arrested for a plan to bomb two Jewish centers in the Bronx. But their leader, a suspicious Pakistani businessman planted by the government as an informant, led these men straight into the hands of the authorities. With endless footage gathered from hidden cameras, directors David Heilbroner and Kate Davis investigate just what homegrown terrorism truly means in this shocking and galvanizing exposé.",
            "release_date": "2014-04-20"
        },
        {
            "vote_count": 0,
            "id": 115636,
            "video": false,
            "vote_average": 0,
            "title": "STING: The Journey & The Labyrinth",
            "popularity": 0.843,
            "poster_path": "/2VMwPitAKEhHIPJcZrXAZmHMfBA.jpg",
            "original_language": "en",
            "original_title": "STING: The Journey & The Labyrinth",
            "genre_ids": [],
            "backdrop_path": "/goq5IAIrx4b3466QLhBdh8rHVeM.jpg",
            "adult": false,
            "overview": "The Journey And The Labyrinth: The Music Of John Dowland, directed and produced by the Emmy-award winning team, Jim Gable and Ann Kim of Graying &amp; Balding, Inc., delves deeper into Sting's relationship with the sixteenth century figure, who has captivated generations with his songs composed primarily for lute, which Sting tackles along with esteemed lutenist Edin Karamazov. Filmed appropriately at Lake House, Sting's 16-century manor house in Wiltshire, and in the ancient gardens of Il Palagio, his home in Italy, the DVD also features the performers before a live audience at St. Luke's Church in London. Interspersed between performances of such timeless Dowland songs such as \"Can She Excuse My Wrongs,\" \"Come Again,\" and \"Flow My Tears,\" are discussions with musicologists David Pinto and Anthony Rooley of the composer's place in music history and his relevance today, plus recitations by Sting from Dowland's personal correspondence.",
            "release_date": "2007-02-19"
        },
        {
            "vote_count": 0,
            "id": 474784,
            "video": false,
            "vote_average": 0,
            "title": "Sting - Beyond The Police",
            "popularity": 0.6,
            "poster_path": "/5PCYWnIopzxu1rKZelAwUfVAsWT.jpg",
            "original_language": "de",
            "original_title": "Sting - Beyond The Police",
            "genre_ids": [
                10402,
                99
            ],
            "backdrop_path": "/nul277FMZedQRKNxKmPaxVg0PUa.jpg",
            "adult": false,
            "overview": "",
            "release_date": "2016-09-09"
        },
        {
            "vote_count": 0,
            "id": 394137,
            "video": false,
            "vote_average": 0,
            "title": "A Sting in the Tail",
            "popularity": 0.6,
            "poster_path": "/bby5f78jmpXovqxLa338wIF0Jjt.jpg",
            "original_language": "en",
            "original_title": "A Sting in the Tail",
            "genre_ids": [],
            "backdrop_path": null,
            "adult": false,
            "overview": "Diane Lane is intelligent and ambitious. When she is elected to Parliament her idealism and commitment give her unpopular party a boost. Everyone, including the Prime Minister, is eager to share her limelight. Diane’s ambition is not satisfied with her new position. Diane’s married lover, Barry Robbins, the Minister for Health, is unaware of Diane’s ultimate plan. Her closest friend, Louise Parker, a political journalist, is a bit more realistic about what women can achieve; she too has a higher goal in mind.",
            "release_date": "1989-11-01"
        },
        {
            "vote_count": 3,
            "id": 306021,
            "video": true,
            "vote_average": 6.2,
            "title": "WWE: The Best of Sting",
            "popularity": 0.6,
            "poster_path": "/5dvLQDfKh6uYOPSo3g3oKnLBPAc.jpg",
            "original_language": "en",
            "original_title": "WWE: The Best of Sting",
            "genre_ids": [],
            "backdrop_path": "/vOvf6WIiRrLQ5PP1hsUTTXsTp1n.jpg",
            "adult": false,
            "overview": "a film by Kevin Dunn.",
            "release_date": "2014-09-23"
        },
        {
            "vote_count": 0,
            "id": 375249,
            "video": true,
            "vote_average": 0,
            "title": "TNA: The Best of Sting",
            "popularity": 0.6,
            "poster_path": "/tGH0NbYpAkwinFBX5BJQORkFZr7.jpg",
            "original_language": "en",
            "original_title": "TNA: The Best of Sting",
            "genre_ids": [],
            "backdrop_path": null,
            "adult": false,
            "overview": "\"THE ICON\" STING is known around the world as one of the biggest names in the history of pro wrestling! The superstar made headlines in 2005 when he made an epic comeback to TNA Wrestling and immediately dominated the ranks! On this DVD release, you'll witness the best of Sting in TNA. Including World Title matches against Kurt Angle, Jeff Hardy and Mick Foley, battles against longtime rivals Hulk Hogan and Ric Flair, his induction into the TNA Hall Of Fame and so much more!",
            "release_date": "2015-04-01"
        }
    ]
}